…
    ## [1] 237

### Most recent

``` r
ratings_unique <- 
  ratings %>% 
  with_groups(
    c(worker, aspect)
    , ~filter(., time == max(time))
  )
ratings_unique
```

    ## # A tibble: 17,952 x 4
    ##    aspect                                           worker           time rating
    ##    <chr>                                            <chr>           <dbl>  <dbl>
    ##  1 how happy you feel                               AW3149261~    1.50e12     69
    ##  2 how much you like your home house or apartment   AW3149261~    1.50e12     67
    ##  3 how satisfied you are with your life             AW3149261~    1.50e12     67
    ##  4 the extent to which you feel the things you do ~ AW3149261~    1.50e12     63
    ##  5 the quality of your sleep                        AW3149261~    1.50e12     59
    ##  6 you being a good moral person and living accord~ AW3149261~    1.50e12     72
    ##  7 you being able to spend enough time with the on~ AW3149261~    1.50e12     67
    ##  8 you being able to support your family financial~ AW3149261~    1.50e12     53
    ##  9 you feeling that your work has value             AW3149261~    1.50e12     60
    ## 10 you not feeling anxious                          AW3149261~    1.50e12     55
    ## # ... with 17,942 more rows
…
``` r
rating_sub <- 
 ratings_unique %>% 
  with_groups(
    worker,
    ~summarise(
      .
      , sub_rich = mean(rating, na.rm = T)
    )
  )
rating_sub
```

    ## # A tibble: 1,056 x 2
    ##    worker          sub_rich
    ##    <chr>              <dbl>
    ##  1 AW1005987207        69.5
    ##  2 AW10083168508       25.9
    ##  3 AW10108518316       95.5
    ##  4 AW10192560152       61.5
    ##  5 AW1039734587YY      76.3
    ##  6 AW10414823617       57.6
    ##  7 AW10499348166OO     47.5
    ##  8 AW10537409847       47.5
    ##  9 AW10593137781       79.5
    ## 10 AW10684824993       64.5
    ## # ... with 1,046 more rows
…
# Question 2

## a) Load `demographics.csv`

``` r
demographics <- read_csv(here(data, "demographics.csv"))
demographics
```

    ## # A tibble: 1,056 x 6
    ##    worker          age  male income education         race                
    ##    <chr>         <dbl> <dbl>  <dbl> <chr>             <chr>               
    ##  1 AW31492615119    23     0  30000 Some college      Asian (non-Hispanic)
    ##  2 AW45861491036    35     0  50000 Some college      Black (non-Hispanic)
    ##  3 AW62562980372    28     0  30000 Some college      Hispanic (any race) 
    ##  4 AW9806860651     55     1  70000 Bachelor's degree White (non-Hispanic)
    ##  5 AW8132561106     38     0  50000 Master's degree   White (non-Hispanic)
    ##  6 AW3914454237     51     0  10000 Bachelor's degree White (non-Hispanic)
    ##  7 AW35167700734    35     0  50000 Bachelor's degree White (non-Hispanic)
    ##  8 AW14391948969    65     0  30000 Some college      Black (non-Hispanic)
    ##  9 AW66605441796    37     0  30000 Some college      Asian (non-Hispanic)
    ## 10 AW11407426600    24     0  50000 Bachelor's degree White (non-Hispanic)
    ## # ... with 1,046 more rows
…
    ## [1] TRUE

## c) Merge the subjective riches data from question 1 with the demographics data.

Well-Being (`w_b`)

``` r
w_b <- full_join(rating_sub, demographics)
w_b
```

    ## # A tibble: 1,056 x 7
    ##    worker          sub_rich   age  male income education         race           
    ##    <chr>              <dbl> <dbl> <dbl>  <dbl> <chr>             <chr>          
    ##  1 AW1005987207        69.5    36     1  30000 High school       Black (non-His~
    ##  2 AW10083168508       25.9    34     0  30000 High school       White (non-His~
    ##  3 AW10108518316       95.5    29     0  50000 Some college      White (non-His~
    ##  4 AW10192560152       61.5    43     1 125000 Bachelor's degree White (non-His~
    ##  5 AW1039734587YY      76.3    24     0  10000 Bachelor's degree White (non-His~
    ##  6 AW10414823617       57.6    24     0  50000 Some college      White (non-His~
    ##  7 AW10499348166OO     47.5    66     1 145000 Bachelor's degree White (non-His~
    ##  8 AW10537409847       47.5    54     0  70000 Some college      White (non-His~
    ##  9 AW10593137781       79.5    32     1 105000 Some college      White (non-His~
    ## 10 AW10684824993       64.5    24     1  50000 High school       Asian (non-His~
    ## # ... with 1,046 more rows
…
