…
ipa_out  
```

    ## # A tibble: 2,107 x 34
    ##    hhid    read write head_gender head_education hh_size village enumid head_age
    ##    <chr>  <dbl> <dbl>   <dbl+lbl>          <dbl>   <dbl>   <dbl>  <dbl>    <dbl>
    ##  1 10000~     2     2  0 [Female]             13       2       1      6       53
    ##  2 10000~     1     1  1 [Male]               13       1       6      5       31
    ##  3 10000~     2     2  1 [Male]                9       3       9      3       40
    ##  4 10000~     6     6  1 [Male]               20       6       4      1       64
    ##  5 10000~     4     4  0 [Female]              8       5       5      6       57
    ##  6 10000~     4     4  1 [Male]               21       5      10      2       33
    ##  7 10000~     7     7  1 [Male]                8       7       4      6       45
    ##  8 10000~     3     3  1 [Male]                8       3       4      9       68
    ##  9 10000~     3     3  1 [Male]               21       5       3      4       31
    ## 10 10000~     3     3  1 [Male]               21       5       5      6       31
    ## # ... with 2,097 more rows, and 25 more variables: head_marital <dbl+lbl>,
    ## #   m0_5 <dbl>, f0_5 <dbl>, m6_16 <dbl>, f6_16 <dbl>, m17_39 <dbl>,
    ## #   f17_39 <dbl>, m40 <dbl>, f40 <dbl>, cropl_1 <dbl>, cropl_2 <dbl>,
    ## #   cropl_3 <dbl>, cropl_4 <dbl>, cropl_5 <dbl>, cropl_6 <dbl>, cropl_9 <dbl>,
    ## #   div_mon <dbl+lbl>, div_gen <dbl+lbl>, div_age <dbl+lbl>, div_rel <dbl+lbl>,
    ## #   div_eth <dbl+lbl>, div_edu <dbl+lbl>, div_pol <dbl+lbl>, give_new <dbl>,
    ## #   comm_wealth <dbl+lbl>
…
## Formato largo

``` r
join1_1 <- 
  join1 %>% 
  separate_rows(crop_l, convert = T) %>% 
  rename(cropl = crop_l)
join1_1
```

    ## # A tibble: 929 x 3
    ##    hhid           village cropl
    ##    <chr>            <dbl> <int>
    ##  1 10000001030863      11     5
    ##  2 10000001030863      11     2
    ##  3 10000001030863      11     7
    ##  4 10000001030863      11     4
    ##  5 10000001030863      11     1
    ##  6 10000001202258      11     5
    ##  7 10000001202258      11     3
    ##  8 10000001202258      11     6
    ##  9 10000001248177      11     5
    ## 10 10000001248177      11     2
    ## # ... with 919 more rows
``` r
join2_1 <- 
  join2 %>% 
  pivot_longer(contains("cropl")) %>% 
  filter(value > 0) %>% 
  relocate(name) %>% 
  select(!value) %>% 
  rename(cropl = name) %>% 
  mutate(
    cropl = parse_number(cropl)
  )
join2_1
```

    ## # A tibble: 3,240 x 28
    ##    cropl hhid          village enumid  size head_age head_gender    head_marital
    ##    <dbl> <chr>           <dbl>  <dbl> <dbl>    <dbl>   <dbl+lbl>       <dbl+lbl>
    ##  1     5 1000000002022       1      6     2       53  2 [female] 1 [single/ nev~
    ##  2     4 1000000002033       6      5     1       31  1 [male]   1 [single/ nev~
    ##  3     5 1000000002033       6      5     1       31  1 [male]   1 [single/ nev~
    ##  4     1 1000000002054       9      3     3       40  1 [male]   3 [monogamousl~
    ##  5     4 1000000002097       4      1     6       64  1 [male]   3 [monogamousl~
    ##  6     1 1000000007020       5      6     5       57  2 [female] 6 [widowed]    
    ##  7     2 1000000007020       5      6     5       57  2 [female] 6 [widowed]    
    ##  8     2 1000000007036      10      2     5       33  1 [male]   3 [monogamousl~
    ##  9     3 1000000007036      10      2     5       33  1 [male]   3 [monogamousl~
    ## 10     3 1000000007053       4      6     7       45  1 [male]   3 [monogamousl~
    ## # ... with 3,230 more rows, and 20 more variables: head_education <dbl+lbl>,
    ## #   read <chr>, write <chr>, m0_5 <dbl>, f0_5 <dbl>, m6_16 <dbl>, f6_16 <dbl>,
    ## #   m17_39 <dbl>, f17_39 <dbl>, m40 <dbl>, f40 <dbl>, div_mon <dbl+lbl>,
    ## #   div_gen <dbl+lbl>, div_age <dbl+lbl>, div_rel <dbl+lbl>, div_eth <dbl+lbl>,
    ## #   div_edu <dbl+lbl>, div_pol <dbl+lbl>, give_new <dbl>, comm_wealth <dbl+lbl>
…
